[
    {
        "name": "guzzle",
        "url": "https://github.com/guzzle/guzzle"
    },
    {
        "name": "github-gitignore",
        "branch": "main",
        "url": "https://github.com/github/gitignore"
    },
    {
        "name": "makefiletutorial",
        "branch": "gh-pages",
        "url": "https://github.com/theicfire/makefiletutorial"
    }
]
